{
  "type": "service_account",
  "project_id": "digiclinics",
  "private_key_id": "bc30a37056f91dd35759b5d9b8c8c573f7b2101d",
  "private_key": "-----BEGIN PRIVATE KEY-----\nMIIEvgIBADANBgkqhkiG9w0BAQEFAASCBKgwggSkAgEAAoIBAQDM+OXERwxDx5P1\niSlM4MLBpntfyRQGRQ7yLkXBuCdmdc//O2Xtlj1o3KmGc6ED3UPo9zG/06Ac4Gu6\n9iG9NVOplnHy0pXq4rI2MJ0cJ5yxsz0G/Q22eqceC20jtUq5B/IWicU6dtySnNeS\nIuD2PVW5RvN2flyJSMJUssiNDcWMXM+fQR8AA57bHPTyw7ArlmslM+iu6rNPJBJD\nP4MCt7pskiidJ0wVtStoPGTSSogc01xJS+5fPUh6hIYiGGuby7OL9+/HEcEl9E6e\nylPsnGNADW+2T/FkahGiQ07+uqe56gPjv36W6ypPMU3WU2gE1+Z5mPdSDOsUOcgg\nNnOH/2WPAgMBAAECggEAXTbj5vsYjMp6czNJYPjmGQMJIGplfORzA5gfiRWidWom\niUAN/ppQmxuezNJQ61z4wT2Jll87dWZqF8BPX6icv4b3kyJJo2Qs/4/kIyWwkO+e\nVUtHrTDiRzuTCqYrsTH32mAVHZ1oehRxxLev7su97GBj4ANfOd+o4LPdmKgmqsnJ\nvUxlBEFm9VjO75LmK49yaT4LpZOf/0CgoV2uWhKCY1YcEVjWcaVRtiEbhAMef/C3\n2/q5b0Hr4p986x1mjLnI850sjSyNb7uQ9gBu3WXNQlApvT54NpleEm+ATJ4KXq79\n1k7LCcDaDjCd0o/CBkyd9wZDD64voeWD2rHoITvFwQKBgQDy3YQ2fqK7Hiei0jRu\nSWfAyEQRkSw3eRU28uA/Fu4E8qW1/pUD3uFZPwPK26eHYdp4SGHUeMaTlFQ3Qjqg\nGnxfJsBu6jmjV4x1h44Pv2fE7CzgeIKmm0PEYnemGopS073cChPTJvl517aWXrQ/\n9gV7Ql8uFJh2XIrpjxSK3EKnBwKBgQDYDr/yORptsgjVZ7Ln4RpyN2oLGlCGdl2+\nQ7VnGwXDK08GgAUBLN2eUeBkC+GvLEp9/UAWLC5kDPMe7EizvuBOIVeF/wVPEqp/\nBoaKWpYjMDOaFh3q2X2Hy+1xvv5Zh/xtnqw+AMNga9ft5af7PNa2FZ8xQkEYz0bs\nCIuI7EvjOQKBgEFpHfnbY5LIDV7SBKMLjDEk/whINEOAjhEtmu4DC/ozLCR3O8U+\nGy2BRlE1lcpltYSd4hNqr/kBgyka4lVKrOKnuj5lQT7YDpF8/+sH3zfvcCrI6k9b\nFAZpitYm4chrFQCVij9diOWjDp8zRJLRfSp0dtQfYezHAfbjvWGk7yKzAoGBAIgS\nigsIsb9igDO/MqrdV6WVhuDlOs/knlelFwuPtkpb7VJfsEc0NYNvd44q+YE0uNmu\ndP1B6Bm1Gi1gjM0/qs8qKpBGs9ZAIEcOGg/qy2HwCp/BzCfLwEaVRb78lf5XKcD0\nTPBj1KjWYtD+cZRGlcdpyK/iVVNFwBoJq6+ZepXpAoGBANAammQVrXsIQXGndd3+\n8zVbeLn5md7x6hUl2bcnlqtta+gLAv6UqUKdwj1pzfayp/weNHQjNZsgPHisKjwl\nsBWOA1P9MsJ9xLcss58okHlNCino3wT7wBh5HlBqIv20CGCGelIaUR8RfiJYm25R\nFAmEoRSGhLHYmiDtC1/qlX4W\n-----END PRIVATE KEY-----\n",
  "client_email": "606001827550-compute@developer.gserviceaccount.com",
  "client_id": "103855175785563861437",
  "auth_uri": "https://accounts.google.com/o/oauth2/auth",
  "token_uri": "https://oauth2.googleapis.com/token",
  "auth_provider_x509_cert_url": "https://www.googleapis.com/oauth2/v1/certs",
  "client_x509_cert_url": "https://www.googleapis.com/robot/v1/metadata/x509/606001827550-compute%40developer.gserviceaccount.com"
}
