{
  "type": "service_account",
  "project_id": "healthcaregujarat-prod",
  "private_key_id": "7131b8a92974de960dd94c47897a8bf103382e0a",
  "private_key": "-----BEGIN PRIVATE KEY-----\nMIIEvgIBADANBgkqhkiG9w0BAQEFAASCBKgwggSkAgEAAoIBAQCmletcrjW1lzNg\nQA3B45Wcnzk96nKukSL5Z+vAi7JZ7Zf2xwqWg8wKoXvz8jDDqEuSOA596AmpINWK\ngPBT0FKd8HTLGz//wH/Fs07OYQOhD8BraUaFFNRlfz29YqObYZPG04l2tZVfLD2C\nMPWOsc8r0rzNkNVgRDv47Jxa5uqVYg9iTb2UoZRQqZG4sE9LiaOURw6YP3BRKkdB\nTgmtnSzPNWn67k/OgP9mLuXcN2KEUSYzq3UwT7vxqVrc81Ld18hmWP3X+YWb7c2F\nkz63ttKKYKLj6NgEtWkQ5uv25do8lONFCFvs5Y78DooPNMcrIzrN3/lxYAr5LbHW\nf6nyDMWdAgMBAAECggEAIDoXls3zAQbXvxKVNsG2815QPhyphAD68aH7lzvPTJts\nzyZxc23a3uGfr7FWYrufpxFmKFBn8gqylQFdvPEr0ncuuQ40At+0OER4he95usJn\n2L+8j0lYz6vef1FiUlB9vLS2vrrhQ1C1M4cSMkFO0W0K7n/K770zlvP7SZCrqCtI\nXbtGrzP5lpIfOjXO9j1Fi+4vldk07RVAxl4xWYo88LPFiiPjs6RxUB9vZ/xLt7lC\n/aDoAsnEe6yqJQl45jMLo2J8dor7pFAEWtX80FuwKZA2IMwlpfkpSux8BDj9MRcy\nbDxjCOMrMv5FpaMYnSYmuNl4LNQuFqauTKyRXK17AQKBgQDno3o1lDRFerPoAE3U\n0cEOjmfr6mKArgMkXcBGKlY1y3rGROqGBEou23e6XR72lX0XEP8ZsTwK7m2kA9aN\ny9q9kiAX9dRvdAKScOCXNGbSyiD+Re2856VUuzF4K1FOhWd9xzeYTQJtneMFTh7G\nmSDXLFo1b/KC0jfjgrHQZWKQgQKBgQC4Gvz/HNqHZEa8j/2Tw8qV3e2Fjpm2ZfAw\nAtI6sHwMly87OyPOKScD+pKC6GQOM+y1dNXRc8D9s6UT980lMHBHhst46yGZiYCB\nHlzd9n7sjcB2RFgzXxK9RteWaN+KEXyeQGgI3cfZgzZReraNGXCG92I6UpyCaTvf\nPaV8Zn7nHQKBgQDj+EUHRCOpmZhDpUD0SbcZz1dBnHxzLk8TVF0t8O7FpMvhI+Q4\nHzKvKPmNZaZagkcJE4Ysz/xKudsYB1r6VH2kApMpYZxAUElTvFmdFkp3+8w607Gl\nL8nMOSr3nJI5mBuBczYo4umX3kKWbwrk48GpYxIo81MWIzQz6eV8NrupgQKBgQCI\n3y+mLnpc2/Um7Nn2CELNpn+WooyuqRynZQGMtnaTGbb4jyAwfjHOaHSSNFlmob3i\nrajlHeyl8O/SZ5Exi9B9rL4K+KwzLKHH3J3oOwDjtwMWKft0vcL9yvQuk2tVh2ih\ncnql1NRmZoF0lAmx3u7kuHhjqdVHsxra/kbQtJa2FQKBgFwfNJjnyEqhyTfPOYuG\nxxmFLZHghnXeZapgKGz3B6NFlEyg6FGadN+/nF7zd6tRsXKacw9qyPOd/mWfcPMZ\nokeFqVKFbJVvIstB4AQozvkA1o+7rhDBZpZ8jjssBhSJ4x2mNJN4zoomcsLMma25\n8mEsTIqffyjXw1difVzi0jS3\n-----END PRIVATE KEY-----\n",
  "client_email": "796404030979-compute@developer.gserviceaccount.com",
  "client_id": "107172590248314769235",
  "auth_uri": "https://accounts.google.com/o/oauth2/auth",
  "token_uri": "https://oauth2.googleapis.com/token",
  "auth_provider_x509_cert_url": "https://www.googleapis.com/oauth2/v1/certs",
  "client_x509_cert_url": "https://www.googleapis.com/robot/v1/metadata/x509/796404030979-compute%40developer.gserviceaccount.com"
}
