{
  "type": "service_account",
  "project_id": "teledoc1",
  "private_key_id": "35327814229f098ce9f0bf0fd14bc10b3679aff0",
  "private_key": "-----BEGIN PRIVATE KEY-----\nMIIEvgIBADANBgkqhkiG9w0BAQEFAASCBKgwggSkAgEAAoIBAQDkz/2NPVHEweGs\n84VkEn0VefUcYc42SCBByLDnWJwT3sQrHPbZdJNIp1qUvBWY3Aexba+Nrxw/Rpx4\na7sVELSQJeYejOmBzXXofgGHQIjJcp49297paFnzhN5j6/8nVT9dNB3AX2BmiFDS\nhn7ESALjRxiiYVhzifx4pUrtCXCbi6lm/3IatV59NMtenopIdhVf4HkdeMQT6MBU\navXicYVhUOlI4uLWLF6harFN8TdI3Vnx6zbmVVftpuGTHk5fA1IKicYrxkUPD5G8\nYcKYjFgF/9fdbRrQg9dbJpO4gzDhht6iuIu3lVg5UN1jnJxdZya+A4RMnZfTRhYK\n7sW1jmTxAgMBAAECggEAOOtgqLT7VVXhvPNrWGSdBy2qgt/1u10f4R16nGJXmT3O\nUOdIpPmx9d3j06IiQT9jDok5paZNAZSgMfiitm/MaxtybmEhaW/iB+7olGvCW1KO\n+NZsUmXqEoEYDYVUmMVFGPtw9z0Crx7z9BsPB+beCQnTn/lVVpCZ5K1BwUua3qZc\nDlSRHZ7lg51uAJ+dYbricXg8aOfTCYL9VglS1wJnJUAGUP85Rk+Xz1rvorg+YLqy\nAOADaPrhqUp2uUOt/RgGA/CT6SrXslodfMNPhO/ZaLmwjxYrwC+sZAEe9UHjH8+x\nb4mxF9h5AIUlGklhP9Wu2QzvY0g1hnKyricvmojokQKBgQD4aGIlFoWKLfZPHlQN\n4i5WAju4BzJjV80DZBUzhjsWeCj5KkIogVgAuE7nTQVIWsl1vZDvrkmlK7MNNq7+\nFVoGYrRJJC7PbnNyB5D60kbZkM48jnP2CsFGx33+xLjYxqrFG85lPErRiYsOBBk4\nKA4gkp/DfIiBCzu6uum0T3Mv7QKBgQDrzkmlWz31p2ZIJiLqS/1olmXd+kYAfPOy\n333NiQYtN2ZIwrpBjdUKR3g7CVsXOS6nJMqEISmR/82b7hoPYGoLKlxQQ/TYXMsL\nvAa25+6fID2xd+oKTtZbUYrbe4rGH051RhuekR/lV5mg9w1Ai1ok20tADD7YZnX2\n/aVZOiGAlQKBgQC0AtC8l6mGDPClPREkTnfNlCi6n1yAaSwD/Q7wG6HOEp1+koUG\n3VRskSN8sm/VkxTS4eCaD+8GZriGJs6BCfAHGJgVOMdDQoMeayVA3gjBuRH7CDA4\naGrPY9mGOgDJ9o3h8NiMvDhryASgz4+HBl/Wcuqbuy8gdIeANdsN81VBsQKBgAk6\noK1FHe6wZ5NpUrKC2N8wC7qdYgIA4fTdRGo387LvWSR94pZQO8dUNsNwwUzuYwIN\nsZNsTNk2/tAciI6TgnL/bG+DyWByeUvzRvv/pdo6g8+fVtyia0dVsK6Ybj0E2qhC\nXzBck7gBLrUbFjyxd4y7vH08PXVwxSsukDsmyErlAoGBAPVPrnU795e7dnvLLrP1\nMcj4ZqQAJ15MnZMQboQWP9Qd7xy6FDIaQGdlVqc9iZmyBLrUM8hRqXj6OeVWMGG1\nMui0RGwFTfgIbCkkrJ33e+oNWEGWFvb3bt5NBMb866TYCtEdC+Dy1AlQdFXz71iu\non9Jx+X6PGmKGwEhBs6bSzO+\n-----END PRIVATE KEY-----\n",
  "client_email": "996700439204-compute@developer.gserviceaccount.com",
  "client_id": "104433382663488962303",
  "auth_uri": "https://accounts.google.com/o/oauth2/auth",
  "token_uri": "https://oauth2.googleapis.com/token",
  "auth_provider_x509_cert_url": "https://www.googleapis.com/oauth2/v1/certs",
  "client_x509_cert_url": "https://www.googleapis.com/robot/v1/metadata/x509/996700439204-compute%40developer.gserviceaccount.com"
}
