[
  {
    "model": "Doctor.Services",
    "pk": 1,
    "fields": {
      "serviceid": 1,
      "servicetag": "Consultation",
      "servicetitle": "Doctor Visit",
      "servicedescription": "General doctor consultation",
      "servicecharges": 1000
    }
  },
  {
    "model": "Doctor.Services",
    "pk": 2,
    "fields": {
      "serviceid": 2,
      "servicetag": "Upto 1 hr",
      "servicetitle": "Nurse Visit",
      "servicedescription": "General nurse service",
      "servicecharges": 300
    }

  },
  {
    "model": "Doctor.Services",
    "pk": 3,
    "fields": {
      "serviceid": 3,
      "servicetag": "12 hr",
      "servicetitle": "Nurse Visit",
      "servicedescription": "General nurse service",
      "servicecharges": 600
    }

  },
  {
    "model": "Doctor.Services",
    "pk":4,
    "fields": {
      "serviceid": 4,
      "servicetag": "24 hr",
      "servicetitle": "Nurse Visit",
      "servicedescription": "General nurse service",
      "servicecharges": 1000
    }

  },
   {
    "model": "Doctor.Services",
    "pk": 5,
    "fields": {
      "serviceid": 5,
      "servicetag": "Upto 2 hr",
      "servicetitle": "Caretaker Visit",
      "servicedescription": "General caretaker service",
      "servicecharges": 300
    }

  },
  {
    "model": "Doctor.Services",
    "pk":6,
    "fields": {
      "serviceid":6,
      "servicetag": "12 hr",
      "servicetitle": "Caretaker Visit",
      "servicedescription": "General Caretaker service",
      "servicecharges": 600
    }

  },
  {
    "model": "Doctor.Services",
    "pk": 7,
    "fields": {
      "serviceid": 7,
      "servicetag": "24 hr",
      "servicetitle": "Caretaker Visit",
      "servicedescription": "General Caretaker service",
      "servicecharges": 1000
    }

  },
  {
    "model": "Doctor.Services",
    "pk": 8,
    "fields": {
      "serviceid": 8,
      "servicetag": "Physiotherapy",
      "servicetitle": "Physiotherapist Visit",
      "servicedescription": "General Physiotherapy session",
      "servicecharges": 500
    }

  },
  {
    "model": "Doctor.Services",
    "pk": 9,
    "fields": {
      "serviceid": 9,
      "servicetag": "Yoga",
      "servicetitle": "Yoga Visit",
      "servicedescription": "General Yoga session",
      "servicecharges": 500
    }

  }
]