[
  {
    "model": "Doctor.skillnumtogroup",
    "pk": 1,
    "fields": {
      "skillnum": 0,
      "groupname": "doctorgroup",
      "categoryname": "General Physician",
      "categorydescription": "All types"
    }
  },
  {
    "model": "Doctor.skillnumtogroup",
    "pk": 2,
    "fields": {
      "skillnum": 5,
      "groupname": "doctorgroup",
      "categoryname": "Ayurveda",
      "categorydescription": ""
    }
  },
  {
    "model": "Doctor.skillnumtogroup",
    "pk": 3,
    "fields": {
      "skillnum": 6,
      "groupname": "doctorgroup",
      "categoryname": "Cardiaologist",
      "categorydescription": "Heart Pain,Cholesterol"
    }
  },
  {
    "model": "Doctor.skillnumtogroup",
    "pk": 4,
    "fields": {
      "skillnum": 7,
      "groupname": "doctorgroup",
      "categoryname": "Gynaecologist ",
      "categorydescription": ""
    }
  },
  {
    "model": "Doctor.skillnumtogroup",
    "pk": 5,
    "fields": {
      "skillnum": 8,
      "groupname": "doctorgroup",
      "categoryname": "Psychiatrist",
      "categorydescription": "Mental health"
    }
  },
  {
    "model": "Doctor.skillnumtogroup",
    "pk": 6,
    "fields": {
      "skillnum": 9,
      "groupname": "doctorgroup",
      "categoryname": "Oncologist",
      "categorydescription": "Cancer"
    }
  },
  {
    "model": "Doctor.skillnumtogroup",
    "pk": 7,
    "fields": {
      "skillnum": 10,
      "groupname": "doctorgroup",
      "categoryname": "ENT and Ophthalmologist",
      "categorydescription": "Eye,Ear,Nose,Throat"
    }
  },
  {
    "model": "Doctor.skillnumtogroup",
    "pk": 8,
    "fields": {
      "skillnum": 11,
      "groupname": "doctorgroup",
      "categoryname": "Dentist",
      "categorydescription": "Teeth,Gums"
    }
  },
  {
    "model": "Doctor.skillnumtogroup",
    "pk": 9,
    "fields": {
      "skillnum": 12,
      "groupname": "doctorgroup",
      "categoryname": "Dermatologist",
      "categorydescription": "Skin"
    }
  },
  {
    "model": "Doctor.skillnumtogroup",
    "pk": 10,
    "fields": {
      "skillnum": 13,
      "groupname": "doctorgroup",
      "categoryname": "Endocrinologist ",
      "categorydescription": "Diabetes,Thyroid"
    }
  },
  {
    "model": "Doctor.skillnumtogroup",
    "pk": 11,
    "fields": {
      "skillnum": 14,
      "groupname": "doctorgroup",
      "categoryname": "Gastro and Hepatologist",
      "categorydescription": "Digestion,Liver"
    }
  },
  {
    "model": "Doctor.skillnumtogroup",
    "pk": 12,
    "fields": {
      "skillnum": 15,
      "groupname": "doctorgroup",
      "categoryname": "Nephrologist and Urologist",
      "categorydescription": "Kidney,Urology"
    }
  },
  {
    "model": "Doctor.skillnumtogroup",
    "pk": 13,
    "fields": {
      "skillnum": 16,
      "groupname": "doctorgroup",
      "categoryname": "Orthopaedic",
      "categorydescription": "Bones,Joints,Muscles"
    }
  },
  {
    "model": "Doctor.skillnumtogroup",
    "pk": 14,
    "fields": {
      "skillnum": 17,
      "groupname": "doctorgroup",
      "categoryname": "Paediatric",
      "categorydescription": "Babies,Children"
    }
  },
  {
    "model": "Doctor.skillnumtogroup",
    "pk": 15,
    "fields": {
      "skillnum": 51,
      "groupname": "doctorgroup",
      "categoryname": "Breast Surgeon",
      "categorydescription": "Surgery"
    }
  },
  {
    "model": "Doctor.skillnumtogroup",
    "pk": 16,
    "fields": {
      "skillnum": 52,
      "groupname": "doctorgroup",
      "categoryname": "Cardiovascular",
      "categorydescription": "Surgery"
    }
  },
  {
    "model": "Doctor.skillnumtogroup",
    "pk": 17,
    "fields": {
      "skillnum": 53,
      "groupname": "doctorgroup",
      "categoryname": "General Surgeon",
      "categorydescription": "Surgery"
    }
  },
  {
    "model": "Doctor.skillnumtogroup",
    "pk": 18,
    "fields": {
      "skillnum": 54,
      "groupname": "doctorgroup",
      "categoryname": "Laparoscopic",
      "categorydescription": "Abdomen,pelvis"
    }
  },
  {
    "model": "Doctor.skillnumtogroup",
    "pk": 19,
    "fields": {
      "skillnum": 55,
      "groupname": "doctorgroup",
      "categoryname": "Neurosurgery",
      "categorydescription": ""
    }
  },
  {
    "model": "Doctor.skillnumtogroup",
    "pk": 20,
    "fields": {
      "skillnum": 56,
      "groupname": "doctorgroup",
      "categoryname": "Orthopaedic Surgery",
      "categorydescription": "Surgery"
    }
  },
  {
    "model": "Doctor.skillnumtogroup",
    "pk": 21,
    "fields": {
      "skillnum": 57,
      "groupname": "doctorgroup",
      "categoryname": "Plastic Surgery",
      "categorydescription": "Surgery"
    }
  },
  {
    "model": "Doctor.skillnumtogroup",
    "pk": 22,
    "fields": {
      "skillnum": 58,
      "groupname": "doctorgroup",
      "categoryname": "Anaesthesiologists",
      "categorydescription": ""
    }
  },
  {
    "model": "Doctor.skillnumtogroup",
    "pk": 23,
    "fields": {
      "skillnum": 59,
      "groupname": "doctorgroup",
      "categoryname": "Arthroscopy ",
      "categorydescription": "knee surgery"
    }
  },
  {
    "model": "Doctor.skillnumtogroup",
    "pk": 24,
    "fields": {
      "skillnum": 61,
      "groupname": "doctorgroup",
      "categoryname": "Opthalmology",
      "categorydescription": "eye surgery"
    }
  },
  {
    "model": "Doctor.skillnumtogroup",
    "pk": 26,
    "fields": {
      "skillnum": 3,
      "groupname": "doctorgroup",
      "categoryname": "Physiotherapist",
      "categorydescription": "Exercise,Manual Therapy"
    }
  },
  {
    "model": "Doctor.skillnumtogroup",
    "pk": 27,
    "fields": {
      "skillnum": 71,
      "groupname": "healthcoachgroup",
      "categoryname": "Health Coach",
      "categorydescription": "Weight loss, Stress Management, Fitness"
    }
  },
  {
    "model": "Doctor.skillnumtogroup",
    "pk": 28,
    "fields": {
      "skillnum": 101,
      "groupname": "doctorgroup",
      "categoryname": "Hospital",
      "categorydescription": "Hospital coordinator"
    }
  },
  {
    "model": "Doctor.skillnumtogroup",
    "pk": 29,
    "fields": {
      "skillnum": 18,
      "groupname": "doctorgroup",
      "categoryname": "Dietitian",
      "categorydescription": "Diet, Nutrition, Food habits"
    }
  },
  {
    "model": "Doctor.skillnumtogroup",
    "pk": 30,
    "fields": {
      "skillnum": 19,
      "groupname": "doctorgroup",
      "categoryname": "Homeopath",
      "categorydescription": "alternative medicine "
    }
  },
  {
    "model": "Doctor.skillnumtogroup",
    "pk": 31,
    "fields": {
      "skillnum": 20,
      "groupname": "doctorgroup",
      "categoryname": "Yoga",
      "categorydescription": "Fitness, Health"
    }
  },
  {
    "model": "Doctor.skillnumtogroup",
    "pk": 32,
    "fields": {
      "skillnum": 21,
      "groupname": "doctorgroup",
      "categoryname": "Psychologist",
      "categorydescription": "Mental Health"
    }
  },
  {
    "model": "Doctor.skillnumtogroup",
    "pk": 33,
    "fields": {
      "skillnum": 22,
      "groupname": "doctorgroup",
      "categoryname": "Pulmonologist",
      "categorydescription": "Respiratory tract"
    }
  },
  {
    "model": "Doctor.skillnumtogroup",
    "pk": 34,
    "fields": {
      "skillnum": 23,
      "groupname": "doctorgroup",
      "categoryname": "Naturopathy",
      "categorydescription": "Natural Healing"
    }
  },
  {
    "model": "Doctor.skillnumtogroup",
    "pk": 35,
    "fields": {
      "skillnum": 24,
      "groupname": "doctorgroup",
      "categoryname": "Pathologist",
      "categorydescription": "blood test, urine test"
    }
  },
  {
    "model": "Doctor.skillnumtogroup",
    "pk": 36,
    "fields": {
      "skillnum": 25,
      "groupname": "doctorgroup",
      "categoryname": "Radiologist",
      "categorydescription": "xray, radiographs, CT, fluoroscopy"
    }
  }
]